<svg width="16" height="16" viewbox="0 0 16 16" xmlns="http://www.w3.org/2000/svg" version="1.1">
    <path d="M13,3 a2,2,0,0,1,2,2 L14.6,12 a2,2,0,0,1,-2,2 L3.3,14 a2,2,0,0,1,-2,-2 L1 5 a2,2,0,0,1,2,-2z" fill="none" stroke="currentColor" stroke-width="1.5"/>
    <path d="M1,3 a1,1,0,0,1,1,-1 L7,2  a1,1,0,0,1,1,1 L8,4  a1,1,0,0,1,-1,1 L2,5  a1,1,0,0,1,-1,-1z" fill="currentColor" stroke="currentColor" stroke-width="1.5"/>
</svg>