<svg width="16" height="16" viewbox="0 0 16 16" xmlns="http://www.w3.org/2000/svg" version="1.1">
    <!---glass-->
    <path d="M3,3 a3.2,3.2,0,0,1,6.4,6.4 a3.2,3.2,0,0,1,-6.4,-6.4" fill="none" stroke="currentColor" stroke-width="1.5"/>
    <!---handle-->
    <path d="M10.5,10.5 L13,13" fill="none" stroke="currentColor" stroke-width="3" stroke-linecap="round"/>
</svg>